<svg width="16" height="16" viewBox="0 0 16 16" fill="none" xmlns="http://www.w3.org/2000/svg">
<path d="M13.7143 1.3335H2.28278C1.75897 1.3335 1.33337 1.76504 1.33337 2.29481V13.7055C1.33337 14.2353 1.75897 14.6668 2.28278 14.6668H13.7143C14.2381 14.6668 14.6667 14.2353 14.6667 13.7055V2.29481C14.6667 1.76504 14.2381 1.3335 13.7143 1.3335ZM5.36314 12.7621H3.38695V6.39897H5.36611V12.7621H5.36314ZM4.37504 5.52992C3.74111 5.52992 3.22921 5.01504 3.22921 4.38409C3.22921 3.75314 3.74111 3.23826 4.37504 3.23826C5.00599 3.23826 5.52087 3.75314 5.52087 4.38409C5.52087 5.01802 5.00897 5.52992 4.37504 5.52992ZM12.7709 12.7621H10.7947V9.66683C10.7947 8.92873 10.7798 7.97933 9.7679 7.97933C8.73814 7.97933 8.5804 8.7829 8.5804 9.61326V12.7621H6.60421V6.39897H8.50004V7.26802H8.52683C8.79171 6.76802 9.43754 6.24123 10.3989 6.24123C12.3989 6.24123 12.7709 7.55969 12.7709 9.27397V12.7621Z" fill="white"/>
</svg>
