<svg width="72" height="73" viewBox="0 0 72 73" fill="none" xmlns="http://www.w3.org/2000/svg">
<rect y="0.5" width="72" height="72" rx="36" fill="#003B80"/>
<path d="M49.3333 23.1667H22.6666C20.8333 23.1667 19.3333 24.6667 19.3333 26.5001V31.5001H22.6666V26.5001H49.3333V31.5001H52.6666V26.5001C52.6666 24.6667 51.1666 23.1667 49.3333 23.1667Z" fill="white"/>
<path d="M49.3333 46.5001H22.6666V41.5001H19.3333V46.5001C19.3333 48.3334 20.8333 49.8334 22.6666 49.8334H49.3333C51.1666 49.8334 52.6666 48.3334 52.6666 46.5001V41.5001H49.3333V46.5001Z" fill="white"/>
<path d="M40.8166 29.0834C40.2499 27.9501 38.3999 27.9501 37.8333 29.0834L32.6666 39.4334L30.8166 35.7501C30.5333 35.1834 29.9666 34.8334 29.3333 34.8334H19.3333V38.1667H28.2999L31.1666 43.9167C31.4666 44.4834 32.0333 44.8334 32.6666 44.8334C33.2999 44.8334 33.8666 44.4834 34.1499 43.9167L39.3333 33.5667L41.1833 37.2501C41.4666 37.8167 42.0333 38.1667 42.6666 38.1667H52.6666V34.8334H43.6999L40.8166 29.0834Z" fill="white"/>
</svg>
